{"products":[{"id":"cmkbadbyi3ffp9gmiake1hy3a","name":"Etui pokrowiec z klapką miejscem na karty do iPhone 17 Air MagSafe Wallet - czarny mat","slug":"hp-etui-pokrowiec-z-klapka-miejscem-na-karty-do-iphone-17-air-magsafe-wallet-czarny-mat-215975955","description":"Kod produktu: <strong>1031872<br />Tech-Protect Wallet Magsafe</strong> to eleganckie i praktyczne etui zaprojektowane specjalnie dla użytkowników smarfonów z funkcją Magsafe. Wykonane z wysokiej jakości ekoskóry, jest nie tylko estetyczne, ale również trwałe i funkcjonalne. <strong>Jedną z głównych cech pokrowca jest jego kompatybilność z technologią Magsafe.</strong> Dzięki specjalnemu magnetycznemu systemowi, case można łatwo zamocować na różnych akcesoriach, takich jak ładowarki czy uchwyty samochodowe, co znacznie ułatwia korzystanie z telefonu. <strong>Kolejnym atutem jest funkcja podstawki,</strong> dzięki której użytkownik może swobodnie oglądać filmy, korzystać z wideorozmów czy przeglądać treści w trybie pejzażowym, bez konieczności trzymania telefonu w ręce. Etui zapewnia stabilne oparcie dla telefonu, co zwiększa wygodę użytkowania. <strong>Dodatkowo, posiada wygodne miejsce na dokumenty, karty kredytowe lub gotówkę. </strong>Dzięki temu można mieć wszystkie najważniejsze rzeczy zawsze przy sobie. Praktyczne i funkcjonalne rozwiązanie dla osób, które cenią sobie wygodę i organizację. Warto zaznaczyć, że etui Tech-Protect Wallet Magsafe dopracowane jest w każdym detalu. Przeszycia dodają mu stylowego charakteru i jednocześnie wzmacniają jego trwałość. <strong>Mocowany na podstawie wykonanej z TPU</strong> czyli elastycznego, ale wytrzymałego materiału, zapewnia ochronę telefonu przed przypadkowymi upadkami, zarysowaniami i innymi uszkodzeniami. <strong>Zapięcie na magnes</strong> sprawia, że zamykanie i otwieranie etui jest szybkie i proste, a jednocześnie trzyma telefon bezpiecznie i pewnie wewnątrz.<br /><strong>Cechy produktu:</strong><ul>\t<li>- 100% Oryginalny</li>\t<li>- Zapakowany w oryginalne opakowanie</li>\t<li>- Wykonany z ekoskóry i TPU</li>\t<li>- Funkcja podstawki</li>\t<li>- Dedykowane kieszonki na karty kredytowe, dokumenty lub gotówkę</li>\t<li>- Zapinany na magnes</li>\t<li>- Idealnie dopasowany</li>\t<li>- Wielofunkcyjny</li>\t<li>- Łatwy w montażu i demontażu</li></ul><br/><strong>Parametry techniczne:</strong><ul>\t<li>- Marka - <strong>Tech-Protect</strong></li>\t<li>- Seria - <strong>Tech-Protect Wallet MagSafe</strong></li></ul><br/><strong>W zestawie:</strong><ul>\t<li>- 1 x Etui Tech-Protect Wallet Magsafe</li></ul>","sku":"hp-1031872","barcode":"5906302330386","status":"ACTIVE","price":"56.74","compareAtPrice":null,"lowestPrice30Days":null,"lowestPrice30DaysAt":null,"metaTitle":null,"metaDescription":null,"createdAt":"2026-01-12T14:56:42.954Z","updatedAt":"2026-01-26T09:34:19.454Z","categoryId":"cmkuvg2mk0005fbaj5qofdji6","specifications":{},"baselinkerProductId":"hp-215975955","baselinkerCategoryPath":null,"average_rating":null,"review_count":0,"tags":["Elektronika","Etui i akcesoria GSM","Hurtownia Przemysłowa","Paczkomaty i Kurier"],"images":[{"id":"cmkbadbyi3ffq9gmizzv4vd3i","productId":"cmkbadbyi3ffp9gmiake1hy3a","url":"https://www.hurtowniaprzemyslowa.pl/images/produkty/98/1031872-1-etui-z-klapka-miejscem-na-karty-tech-protect-hurtownia-dropshipping.jpg","alt":"Etui pokrowiec z klapką miejscem na karty do iPhone 17 Air MagSafe Wallet - czarny mat","order":0,"createdAt":"2026-01-12T14:56:42.954Z"},{"id":"cmkbadbyi3ffr9gmiojs9vwie","productId":"cmkbadbyi3ffp9gmiake1hy3a","url":"https://www.hurtowniaprzemyslowa.pl/images/produkty/98/1031872-2-etui-z-klapka-miejscem-na-karty-tech-protect-hurtownia-dropshipping.jpg","alt":"Etui pokrowiec z klapką miejscem na karty do iPhone 17 Air MagSafe Wallet - czarny mat","order":1,"createdAt":"2026-01-12T14:56:42.954Z"},{"id":"cmkbadbyi3ffs9gmijp2udeta","productId":"cmkbadbyi3ffp9gmiake1hy3a","url":"https://www.hurtowniaprzemyslowa.pl/images/produkty/98/1031872-3-etui-z-klapka-miejscem-na-karty-tech-protect-hurtownia-dropshipping.jpg","alt":"Etui pokrowiec z klapką miejscem na karty do iPhone 17 Air MagSafe Wallet - czarny mat","order":2,"createdAt":"2026-01-12T14:56:42.954Z"},{"id":"cmkbadbyi3fft9gmiyuz2wjjw","productId":"cmkbadbyi3ffp9gmiake1hy3a","url":"https://www.hurtowniaprzemyslowa.pl/images/produkty/98/1031872-4-etui-z-klapka-miejscem-na-karty-tech-protect-hurtownia-dropshipping.jpg","alt":"Etui pokrowiec z klapką miejscem na karty do iPhone 17 Air MagSafe Wallet - czarny mat","order":3,"createdAt":"2026-01-12T14:56:42.954Z"},{"id":"cmkbadbyi3ffu9gmicrxvaw0d","productId":"cmkbadbyi3ffp9gmiake1hy3a","url":"https://www.hurtowniaprzemyslowa.pl/images/produkty/98/1031872-5-etui-z-klapka-miejscem-na-karty-tech-protect-hurtownia-dropshipping.jpg","alt":"Etui pokrowiec z klapką miejscem na karty do iPhone 17 Air MagSafe Wallet - czarny mat","order":4,"createdAt":"2026-01-12T14:56:42.954Z"},{"id":"cmkbadbyi3ffv9gmimujrpu4e","productId":"cmkbadbyi3ffp9gmiake1hy3a","url":"https://www.hurtowniaprzemyslowa.pl/images/produkty/98/1031872-6-etui-z-klapka-miejscem-na-karty-tech-protect-hurtownia-dropshipping.jpg","alt":"Etui pokrowiec z klapką miejscem na karty do iPhone 17 Air MagSafe Wallet - czarny mat","order":5,"createdAt":"2026-01-12T14:56:42.954Z"}],"category":{"id":"cmkuvg2mk0005fbaj5qofdji6","name":"Etui i akcesoria GSM","slug":"etui-i-akcesoria-gsm","parentId":"cmkuvg2jy0001fbajd9dgxt9x","image":null,"order":1,"isActive":true,"createdAt":"2026-01-26T07:54:20.109Z","updatedAt":"2026-01-26T07:54:20.109Z","baselinkerCategoryId":null},"variants":[{"id":"cmkbadbyi3ffw9gmidquca68u","productId":"cmkbadbyi3ffp9gmiake1hy3a","name":"Domyślny","sku":"hp-1031872","barcode":null,"price":"56.74","compareAtPrice":null,"lowestPrice30Days":null,"lowestPrice30DaysAt":null,"attributes":{},"createdAt":"2026-01-12T14:56:42.954Z","updatedAt":"2026-01-12T14:56:42.954Z","baselinkerVariantId":"hp-215975955","inventory":[{"id":"cmkccb48v0unb11n5vurhwpfh","variantId":"cmkbadbyi3ffw9gmidquca68u","locationId":"cmk6sdml51a9qc2nu5e8spnqr","quantity":46,"reserved":0,"minimum":0,"updatedAt":"2026-01-13T08:38:45.055Z"}],"stock":46}],"stock":46}],"total":16911,"page":1,"limit":1,"totalPages":16911}
